-- Merging decision tree log ---
manifest
ADDED from /Users/amir/Documents/Projects/noter/CanvasView/AndroidManifest.xml:1:1-44
INJECTED from /Users/amir/Documents/Projects/noter/CanvasView/AndroidManifest.xml:1:1-44
INJECTED from /Users/amir/Documents/Projects/noter/CanvasView/AndroidManifest.xml:1:1-44
	package
		ADDED from /Users/amir/Documents/Projects/noter/CanvasView/AndroidManifest.xml:1:11-41
		INJECTED from /Users/amir/Documents/Projects/noter/CanvasView/AndroidManifest.xml
		INJECTED from /Users/amir/Documents/Projects/noter/CanvasView/AndroidManifest.xml
uses-sdk
INJECTED from /Users/amir/Documents/Projects/noter/CanvasView/AndroidManifest.xml reason: use-sdk injection requested
INJECTED from /Users/amir/Documents/Projects/noter/CanvasView/AndroidManifest.xml
INJECTED from /Users/amir/Documents/Projects/noter/CanvasView/AndroidManifest.xml
INJECTED from /Users/amir/Documents/Projects/noter/CanvasView/AndroidManifest.xml
INJECTED from /Users/amir/Documents/Projects/noter/CanvasView/AndroidManifest.xml
	android:targetSdkVersion
		INJECTED from /Users/amir/Documents/Projects/noter/CanvasView/AndroidManifest.xml
		ADDED from /Users/amir/Documents/Projects/noter/CanvasView/AndroidManifest.xml
		INJECTED from /Users/amir/Documents/Projects/noter/CanvasView/AndroidManifest.xml
	android:minSdkVersion
		INJECTED from /Users/amir/Documents/Projects/noter/CanvasView/AndroidManifest.xml
		ADDED from /Users/amir/Documents/Projects/noter/CanvasView/AndroidManifest.xml
		INJECTED from /Users/amir/Documents/Projects/noter/CanvasView/AndroidManifest.xml
